{
  "project_info": {
    "project_number": "597127247553",
    "firebase_url": "https://coffeemap-mrusta.firebaseio.com",
    "project_id": "coffeemap-mrusta",
    "storage_bucket": "coffeemap-mrusta.appspot.com"
  },
  "client": [
    {
      "client_info": {
        "mobilesdk_app_id": "1:597127247553:android:6138a6f0e0f84746c48640",
        "android_client_info": {
          "package_name": "mrusta.coffeeMapAndroid"
        }
      },
      "oauth_client": [
        {
          "client_id": "597127247553-u3bpo436jb0nrq94ka14etjma840rj6c.apps.googleusercontent.com",
          "client_type": 3
        }
      ],
      "api_key": [
        {
          "current_key": "AIzaSyDP86MON1pioh2WG-tCw_98uzvRwxPy4lA"
        }
      ],
      "services": {
        "appinvite_service": {
          "other_platform_oauth_client": [
            {
              "client_id": "597127247553-u3bpo436jb0nrq94ka14etjma840rj6c.apps.googleusercontent.com",
              "client_type": 3
            },
            {
              "client_id": "597127247553-5kn46uorijro20jrbpjn856qjsehd5s8.apps.googleusercontent.com",
              "client_type": 2,
              "ios_info": {
                "bundle_id": "mrusta.coffeeMap",
                "app_store_id": "1396261115"
              }
            }
          ]
        }
      }
    }
  ],
  "configuration_version": "1"
}